[
    {
        "name": "minify",
        "url": "https://github.com/tdewolff/minify/releases/download/v2.20.6/minify_linux_amd64.tar.gz",
        "checksum": "7861c1cbe561a68c4ca467252ec5876bcdff1d1dbdb86720e4b0ac483346b24b",
        "command": "tar -xf ${TOOL_FOLDER}/${NAME}.out -C ${TOOL_FOLDER}/${NAME}/"
    },
    {
        "name": "jpegoptim",
        "url": "https://github.com/tjko/jpegoptim/releases/download/v1.5.5/jpegoptim-1.5.5-x64-linux.zip",
        "checksum": "1b3f9f3e92771f49796b3060c7f338e0bb12c71c668d821446772bd92092d865",
        "command": "unzip ${TOOL_FOLDER}/${NAME}.out -d ${TOOL_FOLDER}/${NAME}/"
    }
]